<?xml version="1.0" standalone="no"?>
<!DOCTYPE svg PUBLIC "-//W3C//DTD SVG 20010904//EN"
 "http://www.w3.org/TR/2001/REC-SVG-20010904/DTD/svg10.dtd">
<svg version="1.0" xmlns="http://www.w3.org/2000/svg"
 width="468pt" height="468pt" viewBox="0 0 468 468"
 preserveAspectRatio="xMidYMid meet">
<metadata>
Created by potrace 1.8, written by Peter Selinger 2001-2007
</metadata>
<g transform="translate(0,468) scale(0.731250,-0.731250)"
fill="#000000" stroke="none">
<path d="M240 380 l0 -140 -40 0 -40 0 0 120 0 120 -60 0 -60 0 0 -200 0 -200
-20 0 -20 0 0 -20 0 -20 320 0 320 0 0 20 0 20 -20 0 -20 0 0 100 0 100 -40 0
-40 0 0 -40 0 -40 -20 0 -20 0 0 60 0 60 -20 0 -20 0 0 40 0 40 -40 0 -40 0 0
60 0 60 -60 0 -60 0 0 -140z m80 80 l0 -20 -20 0 -20 0 0 20 0 20 20 0 20 0 0
-20z m-200 -40 l0 -20 -20 0 -20 0 0 20 0 20 20 0 20 0 0 -20z m200 -40 l0
-20 -20 0 -20 0 0 20 0 20 20 0 20 0 0 -20z m-200 -40 l0 -20 -20 0 -20 0 0
20 0 20 20 0 20 0 0 -20z m280 0 l0 -20 -20 0 -20 0 0 20 0 20 20 0 20 0 0
-20z m-80 -40 l0 -20 -20 0 -20 0 0 20 0 20 20 0 20 0 0 -20z m-200 -40 l0
-20 -20 0 -20 0 0 20 0 20 20 0 20 0 0 -20z m320 0 l0 -20 -20 0 -20 0 0 20 0
20 20 0 20 0 0 -20z m-120 -40 l0 -20 -20 0 -20 0 0 20 0 20 20 0 20 0 0 -20z
m-200 -40 l0 -20 -20 0 -20 0 0 20 0 20 20 0 20 0 0 -20z m80 0 l0 -20 -20 0
-20 0 0 20 0 20 20 0 20 0 0 -20z m200 0 l0 -20 -20 0 -20 0 0 20 0 20 20 0
20 0 0 -20z m-80 -40 l0 -20 -20 0 -20 0 0 -20 0 -20 -20 0 -20 0 0 20 0 20
20 0 20 0 0 20 0 20 20 0 20 0 0 -20z m240 0 l0 -20 -20 0 -20 0 0 20 0 20 20
0 20 0 0 -20z m-440 -40 l0 -20 -20 0 -20 0 0 20 0 20 20 0 20 0 0 -20z m80 0
l0 -20 -20 0 -20 0 0 20 0 20 20 0 20 0 0 -20z m200 0 l0 -20 -20 0 -20 0 0
20 0 20 20 0 20 0 0 -20z m80 0 l0 -20 -20 0 -20 0 0 20 0 20 20 0 20 0 0 -20z"/>
</g>
</svg>
